%YAML 1.1
%TAG !u! tag:unity3d.com,2011:
--- !u!1001 &6620246787399627025
PrefabInstance:
  m_ObjectHideFlags: 0
  serializedVersion: 2
  m_Modification:
    m_TransformParent: {fileID: 0}
    m_Modifications:
    - target: {fileID: 1104607721154221778, guid: 3e99ed90649348f49b2a8e554cd50179,
        type: 3}
      propertyPath: m_Name
      value: EnemyPunch Variant
      objectReference: {fileID: 0}
    - target: {fileID: 1104607721154221780, guid: 3e99ed90649348f49b2a8e554cd50179,
        type: 3}
      propertyPath: m_LocalPosition.x
      value: 0
      objectReference: {fileID: 0}
    - target: {fileID: 1104607721154221780, guid: 3e99ed90649348f49b2a8e554cd50179,
        type: 3}
      propertyPath: m_LocalPosition.y
      value: 0
      objectReference: {fileID: 0}
    - target: {fileID: 1104607721154221780, guid: 3e99ed90649348f49b2a8e554cd50179,
        type: 3}
      propertyPath: m_LocalPosition.z
      value: 0
      objectReference: {fileID: 0}
    - target: {fileID: 1104607721154221780, guid: 3e99ed90649348f49b2a8e554cd50179,
        type: 3}
      propertyPath: m_LocalRotation.x
      value: 0
      objectReference: {fileID: 0}
    - target: {fileID: 1104607721154221780, guid: 3e99ed90649348f49b2a8e554cd50179,
        type: 3}
      propertyPath: m_LocalRotation.y
      value: 0
      objectReference: {fileID: 0}
    - target: {fileID: 1104607721154221780, guid: 3e99ed90649348f49b2a8e554cd50179,
        type: 3}
      propertyPath: m_LocalRotation.z
      value: 0
      objectReference: {fileID: 0}
    - target: {fileID: 1104607721154221780, guid: 3e99ed90649348f49b2a8e554cd50179,
        type: 3}
      propertyPath: m_LocalRotation.w
      value: 1
      objectReference: {fileID: 0}
    - target: {fileID: 1104607721154221780, guid: 3e99ed90649348f49b2a8e554cd50179,
        type: 3}
      propertyPath: m_RootOrder
      value: 0
      objectReference: {fileID: 0}
    - target: {fileID: 1104607721154221780, guid: 3e99ed90649348f49b2a8e554cd50179,
        type: 3}
      propertyPath: m_LocalEulerAnglesHint.x
      value: 0
      objectReference: {fileID: 0}
    - target: {fileID: 1104607721154221780, guid: 3e99ed90649348f49b2a8e554cd50179,
        type: 3}
      propertyPath: m_LocalEulerAnglesHint.y
      value: 0
      objectReference: {fileID: 0}
    - target: {fileID: 1104607721154221780, guid: 3e99ed90649348f49b2a8e554cd50179,
        type: 3}
      propertyPath: m_LocalEulerAnglesHint.z
      value: 0
      objectReference: {fileID: 0}
    - target: {fileID: 2372579574688628243, guid: 3e99ed90649348f49b2a8e554cd50179,
        type: 3}
      propertyPath: m_AnchorMax.x
      value: 0
      objectReference: {fileID: 0}
    - target: {fileID: 2372579574688628243, guid: 3e99ed90649348f49b2a8e554cd50179,
        type: 3}
      propertyPath: m_AnchorMax.y
      value: 0
      objectReference: {fileID: 0}
    - target: {fileID: 3764976160066125300, guid: 3e99ed90649348f49b2a8e554cd50179,
        type: 3}
      propertyPath: maxHealth
      value: 20
      objectReference: {fileID: 0}
    m_RemovedComponents: []
  m_SourcePrefab: {fileID: 100100000, guid: 3e99ed90649348f49b2a8e554cd50179, type: 3}
