%YAML 1.1
%TAG !u! tag:unity3d.com,2011:
--- !u!114 &11400000
MonoBehaviour:
  m_ObjectHideFlags: 0
  m_CorrespondingSourceObject: {fileID: 0}
  m_PrefabInstance: {fileID: 0}
  m_PrefabAsset: {fileID: 0}
  m_GameObject: {fileID: 0}
  m_Enabled: 1
  m_EditorHideFlags: 0
  m_Script: {fileID: 11500000, guid: ebc0ba1b5ef6b4a6b9dd53d7eadfea16, type: 3}
  m_Name: AppLovinSettings
  m_EditorClassIdentifier: 
  qualityServiceEnabled: 1
  sdkKey: Lzi5VR_J50y55PM5ctwAwALT5d9g1CKMhT1TF0naOa4fSUn98Vd6rXsvAp4I3A-5LaPvNk4RSvKe5fesxKhRzh
  consentFlowEnabled: 0
  consentFlowPrivacyPolicyUrl: 
  consentFlowTermsOfServiceUrl: 
  userTrackingUsageDescriptionEn: 
  userTrackingUsageLocalizationEnabled: 0
  userTrackingUsageDescriptionDe: 
  userTrackingUsageDescriptionEs: 
  userTrackingUsageDescriptionFr: 
  userTrackingUsageDescriptionJa: 
  userTrackingUsageDescriptionKo: 
  userTrackingUsageDescriptionZhHans: 
  userTrackingUsageDescriptionZhHant: default_localization
  adMobAndroidAppId: ca-app-pub-3555987499620362~3114775359
  adMobIosAppId: ca-app-pub-3555987499620362~8913896945
