%YAML 1.1
%TAG !u! tag:unity3d.com,2011:
--- !u!1045 &1
EditorBuildSettings:
  m_ObjectHideFlags: 0
  serializedVersion: 2
  m_Scenes:
  - enabled: 1
    path: Assets/Scenes/SpashScreen.unity
    guid: e72c71d793568124dadf7cdfa6363f00
  - enabled: 1
    path: Assets/Scenes/GameSceneNoRougelite.unity
    guid: 0857f02f164171c4d8e6c01af145a6ca
  m_configObjects: {}
